{
textureName: map_02.png
label: "Al Kharrara"
startMoney: 30
wayList: [
	{
		wayPoints: [
			{ x: -60, y: 906.24, v: 5 }
			{ x: -30, y: 906.24, v: 5 }

			{ x: 2.5599976, y: 906.24, v: 5 }
			{ x: 75.09332, y: 917.3333, v: 5 }
			{ x: 133.97333, y: 909.6533, v: 5 }
			{ x: 192.0, y: 889.17334, v: 5 }
			{ x: 232.10669, y: 853.3333, v: 5 }
			{ x: 260.26666, y: 808.1066, v: 5 }
			{ x: 278.18668, y: 748.3733, v: 5 }
			{ x: 302.93332, y: 692.9066, v: 5 }
			{ x: 351.57333, y: 632.31995, v: 5 }
			{ x: 430.93332, y: 610.98663, v: 5 }
			{ x: 490.66666, y: 616.95996, v: 6 }

			{ x: 696.32, y: 582.8266, v: 5 }
			{ x: 759.4667, y: 556.37335, v: 5 }
			{ x: 812.37335, y: 515.4133, v: 5 }
			{ x: 849.06665, y: 472.74667, v: 5 }
			{ x: 877.2267, y: 419.84003, v: 5 }
			{ x: 887.4667, y: 359.25336, v: 5 }
			{ x: 878.08, y: 314.02667, v: 5 }
			{ x: 849.92, y: 275.62668, v: 5 }
			{ x: 801.28, y: 244.90666, v: 5 }
			{ x: 750.08, y: 237.22667, v: 5 }
			{ x: 674.9867, y: 241.49333, v: 5 }
			{ x: 605.0133, y: 258.56, v: 5 }
			{ x: 523.94666, y: 280.74667, v: 5 }
			{ x: 453.97333, y: 295.25336, v: 5 }
			{ x: 358.4, y: 302.08002, v: 5 }
			{ x: 269.65332, y: 303.78668, v: 5 }
			{ x: 194.56, y: 300.37335, v: 5 }
			{ x: 118.61334, y: 279.04, v: 5 }
			{ x: 52.053345, y: 244.90666, v: 5 }
			{ x: 2.5599976, y: 217.6, v: 5 }
			{ x: -30, y: 217.6, v: 5 }
			{ x: -60, y: 217.6, v: 5 }
		]
	}
	{
		wayPoints: [
			{ x: 1080.5867, y: 899.4133, v: 5 }
			{ x: 1050.5867, y: 899.4133, v: 5 }
			{ x: 1020.5867, y: 899.4133, v: 5 }
			{ x: 958.29333, y: 915.62665, v: 5 }
			{ x: 858.4533, y: 931.83997, v: 5 }
			{ x: 752.64, y: 933.54663, v: 5 }
			{ x: 637.44, y: 908.8, v: 5 }
			{ x: 544.4267, y: 865.27997, v: 5 }
			{ x: 500.05334, y: 837.12, v: 5 }
			{ x: 468.48, y: 802.98663, v: 5 }
			{ x: 448.0, y: 755.19995, v: 5 }
			{ x: 446.29333, y: 716.8, v: 5 }
			{ x: 460.8, y: 664.74664, v: 5 }
			{ x: 493.22665, y: 625.4933, v: 5 }
			{ x: 567.4667, y: 617.8133, v: 5 }
			{ x: 630.61334, y: 604.16, v: 5 }
			{ x: 632.32, y: 605.0133, v: 5 }

			{ x: 696.32, y: 582.8266, v: 5 }
			{ x: 759.4667, y: 556.37335, v: 5 }
			{ x: 812.37335, y: 515.4133, v: 5 }
			{ x: 849.06665, y: 472.74667, v: 5 }
			{ x: 877.2267, y: 419.84003, v: 5 }
			{ x: 887.4667, y: 359.25336, v: 5 }
			{ x: 878.08, y: 314.02667, v: 5 }
			{ x: 849.92, y: 275.62668, v: 5 }
			{ x: 801.28, y: 244.90666, v: 5 }
			{ x: 750.08, y: 237.22667, v: 5 }
			{ x: 674.9867, y: 241.49333, v: 5 }
			{ x: 605.0133, y: 258.56, v: 5 }
			{ x: 523.94666, y: 280.74667, v: 5 }
			{ x: 453.97333, y: 295.25336, v: 5 }
			{ x: 358.4, y: 302.08002, v: 5 }
			{ x: 269.65332, y: 303.78668, v: 5 }
			{ x: 194.56, y: 300.37335, v: 5 }
			{ x: 118.61334, y: 279.04, v: 5 }
			{ x: 52.053345, y: 244.90666, v: 5 }
			{ x: 2.5599976, y: 217.6, v: 5 }
			{ x: -30, y: 217.6, v: 5 }
			{ x: -60, y: 217.6, v: 5 }
		]
	}
]
waveList: [
		{
			
			items: [ 
				{  start: 0, delay: 0.2, amount: 5, etid: soldier, wayIndex: 0 }
				{  start: 1.9, delay: 0.9, amount: 20, etid: TankG80, wayIndex: 0 }
				{  delay: 0.9, amount: 2, etid: TankG45, wayIndex: 1 }
				{  start: 30, delay: 0.9, amount: 5, etid: TankG45, wayIndex: 1}
			]
		}
		{
			
			items: [
				{  delay: 0.3, amount: 10, etid: TankG45 }
				{  start: 15, delay: 0.5, amount: 20, etid: TankG80 }
			]
		}
	]
}
